%YAML 1.1
%TAG !u! tag:unity3d.com,2011:
--- !u!74 &7400000
AnimationClip:
  m_ObjectHideFlags: 0
  m_PrefabParentObject: {fileID: 0}
  m_PrefabInternal: {fileID: 0}
  m_Name: jump
  serializedVersion: 6
  m_Legacy: 0
  m_Compressed: 0
  m_UseHighQualityCurve: 1
  m_RotationCurves: []
  m_CompressedRotationCurves: []
  m_EulerCurves: []
  m_PositionCurves: []
  m_ScaleCurves: []
  m_FloatCurves: []
  m_PPtrCurves:
  - curve:
    - time: 0
      value: {fileID: 21300000, guid: c16f5aa5a431e2042ac1dd140576ad61, type: 3}
    - time: 0.083333336
      value: {fileID: 21300000, guid: 3d6d2d3f2c0785c4ca19decb92030b06, type: 3}
    - time: 0.16666667
      value: {fileID: 21300000, guid: 6a241ac2b7487e9489cd49e7ded27cd2, type: 3}
    - time: 0.25
      value: {fileID: 21300000, guid: d7c81b2b085ce0746aed307eb806d55e, type: 3}
    - time: 0.33333334
      value: {fileID: 21300000, guid: 0285cedeb2cb27747919d0b73f98c388, type: 3}
    - time: 0.41666666
      value: {fileID: 21300000, guid: cda73ba71190934459272dc113724eca, type: 3}
    - time: 0.5
      value: {fileID: 21300000, guid: a1c8a8ae692196541b58b20022eed37d, type: 3}
    - time: 0.5833333
      value: {fileID: 21300000, guid: 2f020180e51723b44a066d33a8680d4b, type: 3}
    - time: 0.6666667
      value: {fileID: 21300000, guid: 0c640490d517c9747aa070773903dd5e, type: 3}
    - time: 0.75
      value: {fileID: 21300000, guid: 0e91ac5c3337e0d418ce56d6ce9164de, type: 3}
    attribute: m_Sprite
    path: 
    classID: 212
    script: {fileID: 0}
  m_SampleRate: 12
  m_WrapMode: 0
  m_Bounds:
    m_Center: {x: 0, y: 0, z: 0}
    m_Extent: {x: 0, y: 0, z: 0}
  m_ClipBindingConstant:
    genericBindings:
    - serializedVersion: 2
      path: 0
      attribute: 0
      script: {fileID: 0}
      typeID: 212
      customType: 23
      isPPtrCurve: 1
    pptrCurveMapping:
    - {fileID: 21300000, guid: c16f5aa5a431e2042ac1dd140576ad61, type: 3}
    - {fileID: 21300000, guid: 3d6d2d3f2c0785c4ca19decb92030b06, type: 3}
    - {fileID: 21300000, guid: 6a241ac2b7487e9489cd49e7ded27cd2, type: 3}
    - {fileID: 21300000, guid: d7c81b2b085ce0746aed307eb806d55e, type: 3}
    - {fileID: 21300000, guid: 0285cedeb2cb27747919d0b73f98c388, type: 3}
    - {fileID: 21300000, guid: cda73ba71190934459272dc113724eca, type: 3}
    - {fileID: 21300000, guid: a1c8a8ae692196541b58b20022eed37d, type: 3}
    - {fileID: 21300000, guid: 2f020180e51723b44a066d33a8680d4b, type: 3}
    - {fileID: 21300000, guid: 0c640490d517c9747aa070773903dd5e, type: 3}
    - {fileID: 21300000, guid: 0e91ac5c3337e0d418ce56d6ce9164de, type: 3}
  m_AnimationClipSettings:
    serializedVersion: 2
    m_AdditiveReferencePoseClip: {fileID: 0}
    m_AdditiveReferencePoseTime: 0
    m_StartTime: 0
    m_StopTime: 0.8333333
    m_OrientationOffsetY: 0
    m_Level: 0
    m_CycleOffset: 0
    m_HasAdditiveReferencePose: 0
    m_LoopTime: 0
    m_LoopBlend: 0
    m_LoopBlendOrientation: 0
    m_LoopBlendPositionY: 0
    m_LoopBlendPositionXZ: 0
    m_KeepOriginalOrientation: 0
    m_KeepOriginalPositionY: 1
    m_KeepOriginalPositionXZ: 0
    m_HeightFromFeet: 0
    m_Mirror: 0
  m_EditorCurves: []
  m_EulerEditorCurves: []
  m_HasGenericRootTransform: 0
  m_HasMotionFloatCurves: 0
  m_GenerateMotionCurves: 0
  m_Events: []
