%YAML 1.1
%TAG !u! tag:unity3d.com,2011:
--- !u!221 &22100000
AnimatorOverrideController:
  m_ObjectHideFlags: 0
  m_PrefabParentObject: {fileID: 0}
  m_PrefabInternal: {fileID: 0}
  m_Name: main character override
  m_Controller: {fileID: 9100000, guid: f1cd0730da4b91a48b6e718d9359a05a, type: 2}
  m_Clips:
  - m_OriginalClip: {fileID: 7400000, guid: c0a32aa5206b400428f52a44b234c97f, type: 2}
    m_OverrideClip: {fileID: 7400000, guid: aab67cee1df439749b35c8fee051d3af, type: 2}
  - m_OriginalClip: {fileID: 7400000, guid: 5f88bded061933e41a9ed57ae1d07946, type: 2}
    m_OverrideClip: {fileID: 7400000, guid: 1f2f9fc9116b30f4bb6f26406ce68322, type: 2}
  - m_OriginalClip: {fileID: 7400000, guid: 1c4aa503092e12040ac412fec79b5d67, type: 2}
    m_OverrideClip: {fileID: 7400000, guid: d3edaaddd69c7ea4988efff324239c81, type: 2}
  - m_OriginalClip: {fileID: 7400000, guid: 4514f602493b5e849be5b75f463edee3, type: 2}
    m_OverrideClip: {fileID: 7400000, guid: 4514f602493b5e849be5b75f463edee3, type: 2}
