%YAML 1.1
%TAG !u! tag:unity3d.com,2011:
--- !u!74 &7400000
AnimationClip:
  m_ObjectHideFlags: 0
  m_PrefabParentObject: {fileID: 0}
  m_PrefabInternal: {fileID: 0}
  m_Name: bolt sizzle
  serializedVersion: 6
  m_Legacy: 0
  m_Compressed: 0
  m_UseHighQualityCurve: 1
  m_RotationCurves: []
  m_CompressedRotationCurves: []
  m_EulerCurves: []
  m_PositionCurves: []
  m_ScaleCurves: []
  m_FloatCurves: []
  m_PPtrCurves:
  - curve:
    - time: 0
      value: {fileID: 21300000, guid: 12d854fbe9fbb084aba66f1ba00ea165, type: 3}
    - time: 0.083333336
      value: {fileID: 21300000, guid: 5318a4578aa2e90478a3cae8ecad6002, type: 3}
    - time: 0.16666667
      value: {fileID: 21300000, guid: 192090d4bc8651d4e85c705cf3f34e31, type: 3}
    - time: 0.25
      value: {fileID: 21300000, guid: 9e300ea59a77eb94782e3cd121998444, type: 3}
    - time: 0.33333334
      value: {fileID: 21300000, guid: dda6cbbfbbe2a7346aa8fba31328e879, type: 3}
    - time: 0.41666666
      value: {fileID: 21300000, guid: 6d1b269c0b43fd346ad73f77e69d7d8e, type: 3}
    - time: 0.5
      value: {fileID: 21300000, guid: af45d9a12c96525448eb9a881e42d89f, type: 3}
    - time: 0.5833333
      value: {fileID: 21300000, guid: f7d41ef2662252347b78aa5f882e3177, type: 3}
    - time: 0.6666667
      value: {fileID: 21300000, guid: 97648369180ea3e4a984d93b9a2b2ef9, type: 3}
    - time: 0.75
      value: {fileID: 21300000, guid: 0542affb697ee0140a7558ec64a822b1, type: 3}
    attribute: m_Sprite
    path: 
    classID: 212
    script: {fileID: 0}
  m_SampleRate: 12
  m_WrapMode: 0
  m_Bounds:
    m_Center: {x: 0, y: 0, z: 0}
    m_Extent: {x: 0, y: 0, z: 0}
  m_ClipBindingConstant:
    genericBindings:
    - serializedVersion: 2
      path: 0
      attribute: 0
      script: {fileID: 0}
      typeID: 212
      customType: 23
      isPPtrCurve: 1
    pptrCurveMapping:
    - {fileID: 21300000, guid: 12d854fbe9fbb084aba66f1ba00ea165, type: 3}
    - {fileID: 21300000, guid: 5318a4578aa2e90478a3cae8ecad6002, type: 3}
    - {fileID: 21300000, guid: 192090d4bc8651d4e85c705cf3f34e31, type: 3}
    - {fileID: 21300000, guid: 9e300ea59a77eb94782e3cd121998444, type: 3}
    - {fileID: 21300000, guid: dda6cbbfbbe2a7346aa8fba31328e879, type: 3}
    - {fileID: 21300000, guid: 6d1b269c0b43fd346ad73f77e69d7d8e, type: 3}
    - {fileID: 21300000, guid: af45d9a12c96525448eb9a881e42d89f, type: 3}
    - {fileID: 21300000, guid: f7d41ef2662252347b78aa5f882e3177, type: 3}
    - {fileID: 21300000, guid: 97648369180ea3e4a984d93b9a2b2ef9, type: 3}
    - {fileID: 21300000, guid: 0542affb697ee0140a7558ec64a822b1, type: 3}
  m_AnimationClipSettings:
    serializedVersion: 2
    m_AdditiveReferencePoseClip: {fileID: 0}
    m_AdditiveReferencePoseTime: 0
    m_StartTime: 0
    m_StopTime: 0.8333333
    m_OrientationOffsetY: 0
    m_Level: 0
    m_CycleOffset: 0
    m_HasAdditiveReferencePose: 0
    m_LoopTime: 1
    m_LoopBlend: 0
    m_LoopBlendOrientation: 0
    m_LoopBlendPositionY: 0
    m_LoopBlendPositionXZ: 0
    m_KeepOriginalOrientation: 0
    m_KeepOriginalPositionY: 1
    m_KeepOriginalPositionXZ: 0
    m_HeightFromFeet: 0
    m_Mirror: 0
  m_EditorCurves: []
  m_EulerEditorCurves: []
  m_HasGenericRootTransform: 0
  m_HasMotionFloatCurves: 0
  m_GenerateMotionCurves: 0
  m_Events: []
