%YAML 1.1
%TAG !u! tag:unity3d.com,2011:
--- !u!74 &7400000
AnimationClip:
  m_ObjectHideFlags: 0
  m_PrefabParentObject: {fileID: 0}
  m_PrefabInternal: {fileID: 0}
  m_Name: Archer1_Idle 1
  serializedVersion: 6
  m_Legacy: 0
  m_Compressed: 0
  m_UseHighQualityCurve: 1
  m_RotationCurves: []
  m_CompressedRotationCurves: []
  m_EulerCurves: []
  m_PositionCurves: []
  m_ScaleCurves: []
  m_FloatCurves: []
  m_PPtrCurves:
  - curve:
    - time: 0
      value: {fileID: 21300000, guid: 84a80795df829b542a6b24734f5d8d97, type: 3}
    - time: 0.06666667
      value: {fileID: 21300000, guid: a57a1a331d9a8694b9c095af36371704, type: 3}
    - time: 0.13333334
      value: {fileID: 21300000, guid: 3494c73894b5c4f4eac50b0b6f5cf9cf, type: 3}
    - time: 0.2
      value: {fileID: 21300000, guid: f4837fcdf6e445d4d8f1bfdd2d88072f, type: 3}
    - time: 0.26666668
      value: {fileID: 21300000, guid: 7408d94a597976c48b89b069650a453c, type: 3}
    - time: 0.33333334
      value: {fileID: 21300000, guid: efc68c8a05f21ef4bbbe1bd1a30920d5, type: 3}
    - time: 0.4
      value: {fileID: 21300000, guid: bfe1cbdfe148fa64ea2feddcdc1aa45b, type: 3}
    - time: 0.46666667
      value: {fileID: 21300000, guid: 68bbf1abd08b0ef4584be210353353c1, type: 3}
    - time: 0.53333336
      value: {fileID: 21300000, guid: 842ec4c12ffafa148952cb4875854154, type: 3}
    - time: 0.6
      value: {fileID: 21300000, guid: 265b764c96af9ea4386b878e2e86dccd, type: 3}
    - time: 0.6666667
      value: {fileID: 21300000, guid: 0247a982b034e9d49ab68fa12ef77bc3, type: 3}
    - time: 0.73333335
      value: {fileID: 21300000, guid: 90ebc67d318bbf44898852a5c2e3aa61, type: 3}
    - time: 0.8
      value: {fileID: 21300000, guid: d7775baff1c09dd48b821abffba231fc, type: 3}
    - time: 0.8666667
      value: {fileID: 21300000, guid: b2863d615f0b5e54c83058d39dcf10d6, type: 3}
    - time: 0.93333334
      value: {fileID: 21300000, guid: 0b59018e8d6152741867c04e9445250c, type: 3}
    attribute: m_Sprite
    path: 
    classID: 212
    script: {fileID: 0}
  m_SampleRate: 15
  m_WrapMode: 0
  m_Bounds:
    m_Center: {x: 0, y: 0, z: 0}
    m_Extent: {x: 0, y: 0, z: 0}
  m_ClipBindingConstant:
    genericBindings:
    - serializedVersion: 2
      path: 0
      attribute: 0
      script: {fileID: 0}
      typeID: 212
      customType: 23
      isPPtrCurve: 1
    pptrCurveMapping:
    - {fileID: 21300000, guid: 84a80795df829b542a6b24734f5d8d97, type: 3}
    - {fileID: 21300000, guid: a57a1a331d9a8694b9c095af36371704, type: 3}
    - {fileID: 21300000, guid: 3494c73894b5c4f4eac50b0b6f5cf9cf, type: 3}
    - {fileID: 21300000, guid: f4837fcdf6e445d4d8f1bfdd2d88072f, type: 3}
    - {fileID: 21300000, guid: 7408d94a597976c48b89b069650a453c, type: 3}
    - {fileID: 21300000, guid: efc68c8a05f21ef4bbbe1bd1a30920d5, type: 3}
    - {fileID: 21300000, guid: bfe1cbdfe148fa64ea2feddcdc1aa45b, type: 3}
    - {fileID: 21300000, guid: 68bbf1abd08b0ef4584be210353353c1, type: 3}
    - {fileID: 21300000, guid: 842ec4c12ffafa148952cb4875854154, type: 3}
    - {fileID: 21300000, guid: 265b764c96af9ea4386b878e2e86dccd, type: 3}
    - {fileID: 21300000, guid: 0247a982b034e9d49ab68fa12ef77bc3, type: 3}
    - {fileID: 21300000, guid: 90ebc67d318bbf44898852a5c2e3aa61, type: 3}
    - {fileID: 21300000, guid: d7775baff1c09dd48b821abffba231fc, type: 3}
    - {fileID: 21300000, guid: b2863d615f0b5e54c83058d39dcf10d6, type: 3}
    - {fileID: 21300000, guid: 0b59018e8d6152741867c04e9445250c, type: 3}
  m_AnimationClipSettings:
    serializedVersion: 2
    m_AdditiveReferencePoseClip: {fileID: 0}
    m_AdditiveReferencePoseTime: 0
    m_StartTime: 0
    m_StopTime: 1
    m_OrientationOffsetY: 0
    m_Level: 0
    m_CycleOffset: 0
    m_HasAdditiveReferencePose: 0
    m_LoopTime: 1
    m_LoopBlend: 0
    m_LoopBlendOrientation: 0
    m_LoopBlendPositionY: 0
    m_LoopBlendPositionXZ: 0
    m_KeepOriginalOrientation: 0
    m_KeepOriginalPositionY: 1
    m_KeepOriginalPositionXZ: 0
    m_HeightFromFeet: 0
    m_Mirror: 0
  m_EditorCurves: []
  m_EulerEditorCurves: []
  m_HasGenericRootTransform: 0
  m_HasMotionFloatCurves: 0
  m_GenerateMotionCurves: 0
  m_Events: []
