%YAML 1.1
%TAG !u! tag:unity3d.com,2011:
--- !u!74 &7400000
AnimationClip:
  m_ObjectHideFlags: 0
  m_PrefabParentObject: {fileID: 0}
  m_PrefabInternal: {fileID: 0}
  m_Name: attack
  serializedVersion: 6
  m_Legacy: 0
  m_Compressed: 0
  m_UseHighQualityCurve: 1
  m_RotationCurves: []
  m_CompressedRotationCurves: []
  m_EulerCurves: []
  m_PositionCurves: []
  m_ScaleCurves: []
  m_FloatCurves: []
  m_PPtrCurves:
  - curve:
    - time: 0
      value: {fileID: 21300000, guid: 505c30b695b091342b3d32680f7b55d8, type: 3}
    - time: 0.083333336
      value: {fileID: 21300000, guid: 0b0b4b1dc3486d74a9505df692f92189, type: 3}
    - time: 0.16666667
      value: {fileID: 21300000, guid: 343bebbab4238484f81d15940d462732, type: 3}
    - time: 0.25
      value: {fileID: 21300000, guid: 666705d0f16f81841a8081a00dca9c59, type: 3}
    - time: 0.33333334
      value: {fileID: 21300000, guid: e054841f9bf52ab498aebfcaddc3b813, type: 3}
    - time: 0.41666666
      value: {fileID: 21300000, guid: 344c40215d625f549b2c65ef2a5b5c59, type: 3}
    - time: 0.5
      value: {fileID: 21300000, guid: f8c9441ccf25aa544844e6b3a3e1580e, type: 3}
    - time: 0.5833333
      value: {fileID: 21300000, guid: 2f7288f692b7f7f49a0042ae06a6597f, type: 3}
    - time: 0.6666667
      value: {fileID: 21300000, guid: 5b2a19c18255e79448053e93cf7daa2f, type: 3}
    - time: 0.75
      value: {fileID: 21300000, guid: b8852a01d2cf845408e51e4acc625fcf, type: 3}
    attribute: m_Sprite
    path: 
    classID: 212
    script: {fileID: 0}
  m_SampleRate: 12
  m_WrapMode: 0
  m_Bounds:
    m_Center: {x: 0, y: 0, z: 0}
    m_Extent: {x: 0, y: 0, z: 0}
  m_ClipBindingConstant:
    genericBindings:
    - serializedVersion: 2
      path: 0
      attribute: 0
      script: {fileID: 0}
      typeID: 212
      customType: 23
      isPPtrCurve: 1
    pptrCurveMapping:
    - {fileID: 21300000, guid: 505c30b695b091342b3d32680f7b55d8, type: 3}
    - {fileID: 21300000, guid: 0b0b4b1dc3486d74a9505df692f92189, type: 3}
    - {fileID: 21300000, guid: 343bebbab4238484f81d15940d462732, type: 3}
    - {fileID: 21300000, guid: 666705d0f16f81841a8081a00dca9c59, type: 3}
    - {fileID: 21300000, guid: e054841f9bf52ab498aebfcaddc3b813, type: 3}
    - {fileID: 21300000, guid: 344c40215d625f549b2c65ef2a5b5c59, type: 3}
    - {fileID: 21300000, guid: f8c9441ccf25aa544844e6b3a3e1580e, type: 3}
    - {fileID: 21300000, guid: 2f7288f692b7f7f49a0042ae06a6597f, type: 3}
    - {fileID: 21300000, guid: 5b2a19c18255e79448053e93cf7daa2f, type: 3}
    - {fileID: 21300000, guid: b8852a01d2cf845408e51e4acc625fcf, type: 3}
  m_AnimationClipSettings:
    serializedVersion: 2
    m_AdditiveReferencePoseClip: {fileID: 0}
    m_AdditiveReferencePoseTime: 0
    m_StartTime: 0
    m_StopTime: 0.8333333
    m_OrientationOffsetY: 0
    m_Level: 0
    m_CycleOffset: 0
    m_HasAdditiveReferencePose: 0
    m_LoopTime: 0
    m_LoopBlend: 0
    m_LoopBlendOrientation: 0
    m_LoopBlendPositionY: 0
    m_LoopBlendPositionXZ: 0
    m_KeepOriginalOrientation: 0
    m_KeepOriginalPositionY: 1
    m_KeepOriginalPositionXZ: 0
    m_HeightFromFeet: 0
    m_Mirror: 0
  m_EditorCurves: []
  m_EulerEditorCurves: []
  m_HasGenericRootTransform: 0
  m_HasMotionFloatCurves: 0
  m_GenerateMotionCurves: 0
  m_Events: []
