%YAML 1.1
%TAG !u! tag:unity3d.com,2011:
--- !u!74 &7400000
AnimationClip:
  m_ObjectHideFlags: 0
  m_PrefabParentObject: {fileID: 0}
  m_PrefabInternal: {fileID: 0}
  m_Name: dead
  serializedVersion: 6
  m_Legacy: 0
  m_Compressed: 0
  m_UseHighQualityCurve: 1
  m_RotationCurves: []
  m_CompressedRotationCurves: []
  m_EulerCurves: []
  m_PositionCurves: []
  m_ScaleCurves: []
  m_FloatCurves: []
  m_PPtrCurves:
  - curve:
    - time: 0
      value: {fileID: 21300000, guid: 5699e4c7f6cf14147bf4f182ec42f973, type: 3}
    - time: 0.083333336
      value: {fileID: 21300000, guid: 1b3160d4f1fc9794fae86d919deea122, type: 3}
    - time: 0.16666667
      value: {fileID: 21300000, guid: b08ebf285b944cc42b106f0fd03e4713, type: 3}
    - time: 0.25
      value: {fileID: 21300000, guid: 2c5ede6837af36d4c85f516e5e51214d, type: 3}
    - time: 0.33333334
      value: {fileID: 21300000, guid: 0bce860d26ccd9947ba327d243034a64, type: 3}
    - time: 0.41666666
      value: {fileID: 21300000, guid: 9fa83da6f40d0274baa908cd5e320ca8, type: 3}
    - time: 0.5
      value: {fileID: 21300000, guid: 54a5914c1b55e6e47a150fddbf21c6d7, type: 3}
    - time: 0.5833333
      value: {fileID: 21300000, guid: 397bcc241fd44f14ca51f65a05feb4ec, type: 3}
    - time: 0.6666667
      value: {fileID: 21300000, guid: aa5b5967ccd0dbf4fb118b34b75a9699, type: 3}
    - time: 0.75
      value: {fileID: 21300000, guid: 160dc3086c5de6042bc8a3f216d5bc87, type: 3}
    attribute: m_Sprite
    path: 
    classID: 212
    script: {fileID: 0}
  m_SampleRate: 12
  m_WrapMode: 0
  m_Bounds:
    m_Center: {x: 0, y: 0, z: 0}
    m_Extent: {x: 0, y: 0, z: 0}
  m_ClipBindingConstant:
    genericBindings:
    - serializedVersion: 2
      path: 0
      attribute: 0
      script: {fileID: 0}
      typeID: 212
      customType: 23
      isPPtrCurve: 1
    pptrCurveMapping:
    - {fileID: 21300000, guid: 5699e4c7f6cf14147bf4f182ec42f973, type: 3}
    - {fileID: 21300000, guid: 1b3160d4f1fc9794fae86d919deea122, type: 3}
    - {fileID: 21300000, guid: b08ebf285b944cc42b106f0fd03e4713, type: 3}
    - {fileID: 21300000, guid: 2c5ede6837af36d4c85f516e5e51214d, type: 3}
    - {fileID: 21300000, guid: 0bce860d26ccd9947ba327d243034a64, type: 3}
    - {fileID: 21300000, guid: 9fa83da6f40d0274baa908cd5e320ca8, type: 3}
    - {fileID: 21300000, guid: 54a5914c1b55e6e47a150fddbf21c6d7, type: 3}
    - {fileID: 21300000, guid: 397bcc241fd44f14ca51f65a05feb4ec, type: 3}
    - {fileID: 21300000, guid: aa5b5967ccd0dbf4fb118b34b75a9699, type: 3}
    - {fileID: 21300000, guid: 160dc3086c5de6042bc8a3f216d5bc87, type: 3}
  m_AnimationClipSettings:
    serializedVersion: 2
    m_AdditiveReferencePoseClip: {fileID: 0}
    m_AdditiveReferencePoseTime: 0
    m_StartTime: 0
    m_StopTime: 0.8333333
    m_OrientationOffsetY: 0
    m_Level: 0
    m_CycleOffset: 0
    m_HasAdditiveReferencePose: 0
    m_LoopTime: 0
    m_LoopBlend: 0
    m_LoopBlendOrientation: 0
    m_LoopBlendPositionY: 0
    m_LoopBlendPositionXZ: 0
    m_KeepOriginalOrientation: 0
    m_KeepOriginalPositionY: 1
    m_KeepOriginalPositionXZ: 0
    m_HeightFromFeet: 0
    m_Mirror: 0
  m_EditorCurves: []
  m_EulerEditorCurves: []
  m_HasGenericRootTransform: 0
  m_HasMotionFloatCurves: 0
  m_GenerateMotionCurves: 0
  m_Events: []
